^E:\TCP_IP\TCP_IP\TCP_IP\TCPIP.CPP|E:\TCP_IP\TCP_IP\TCP_IP\TEST_MAIN.CPP
E:\TCP_IP\TCP_IP\TCP_IP\DEBUG\VC140.PDB
E:\TCP_IP\TCP_IP\TCP_IP\DEBUG\VC140.IDB
E:\TCP_IP\TCP_IP\TCP_IP\DEBUG\TEST_MAIN.OBJ
E:\TCP_IP\TCP_IP\TCP_IP\DEBUG\TCPIP.OBJ
^E:\TCP_IP\TCP_IP\TCP_IP\TCPIP.CPP
E:\TCP_IP\TCP_IP\TCP_IP\DEBUG\VC140.PDB
E:\TCP_IP\TCP_IP\TCP_IP\DEBUG\VC140.IDB
E:\TCP_IP\TCP_IP\TCP_IP\DEBUG\TCPIP.OBJ
^E:\TCP_IP\TCP_IP\TCP_IP\TEST_MAIN.CPP
E:\TCP_IP\TCP_IP\TCP_IP\DEBUG\VC140.PDB
E:\TCP_IP\TCP_IP\TCP_IP\DEBUG\VC140.IDB
E:\TCP_IP\TCP_IP\TCP_IP\DEBUG\TEST_MAIN.OBJ
